{
    "openapi": "3.0.0",
    "info": {
        "title": "TechBase VN Test",
        "version": "0.1"
    },
    "paths": {
        "/api/login": {
            "post": {
                "tags": [
                    "Auth"
                ],
                "summary": "Login",
                "requestBody": {
                    "description": "Please use info to login for test\n *                      Mananger: email :manager@gmail.com, password:123456\n *                      CEO: email :director@gmail.com, password:123456",
                    "content": {
                        "application/json": {
                            "schema": {
                                "properties": {
                                    "email": {
                                        "type": "email"
                                    },
                                    "password": {
                                        "type": "string"
                                    }
                                },
                                "type": "object",
                                "example": {
                                    "email": "manager@gmail.com",
                                    "password": "123456"
                                }
                            }
                        }
                    }
                },
                "responses": {
                    "200": {
                        "description": "Response accesstoken when login successfully",
                        "content": {
                            "application/json": {
                                "schema": {
                                    "properties": {
                                        "success": {
                                            "type": "boolean"
                                        },
                                        "data": {
                                            "type": "text"
                                        }
                                    },
                                    "type": "object",
                                    "example": {
                                        "success": "true",
                                        "data": {
                                            "token": "access token string"
                                        }
                                    }
                                }
                            }
                        }
                    }
                },
                "security": [
                    {
                        "Bearer": []
                    }
                ]
            }
        },
        "/api/user/list": {
            "get": {
                "tags": [
                    "User"
                ],
                "summary": "Get List Employee",
                "description": "Returns list employee",
                "parameters": [
                    {
                        "name": "limit",
                        "in": "query",
                        "schema": {
                            "type": "number"
                        }
                    },
                    {
                        "name": "current_page",
                        "in": "query",
                        "schema": {
                            "type": "number"
                        }
                    }
                ],
                "responses": {
                    "200": {
                        "description": "successful operation",
                        "content": {
                            "application/json": {
                                "schema": {
                                    "properties": {
                                        "status": {
                                            "type": "boolean"
                                        }
                                    },
                                    "type": "object",
                                    "example": {
                                        "status": "true",
                                        "data": [
                                            {
                                                "id": 1693478820380037,
                                                "email": "myrtle53@example.com",
                                                "role": "employee",
                                                "full_name": "Dino Stehr",
                                                "created_at": "2021-03-06T10:40:56.000000Z",
                                                "team_info": []
                                            },
                                            {
                                                "id": 1693478820384558,
                                                "email": "creola57@example.com",
                                                "role": "employee",
                                                "full_name": "Julia Schimmel",
                                                "created_at": "2021-03-06T10:40:56.000000Z",
                                                "team_info": [
                                                    {
                                                        "team_id": "1693478829196749",
                                                        "team_name": "Team-Reservation Agent OR Transportation Ticket Agent",
                                                        "department_name": "Department-2"
                                                    }
                                                ]
                                            }
                                        ],
                                        "pagination": {
                                            "total": 1702,
                                            "per_page": 50,
                                            "total_page": 35,
                                            "current_page": 1
                                        }
                                    }
                                }
                            }
                        }
                    }
                },
                "security": [
                    {
                        "Bearer": []
                    }
                ]
            }
        }
    },
    "components": {
        "securitySchemes": {
            "Bearer": {
                "type": "apiKey",
                "description": "Bearer",
                "name": "Authorization",
                "in": "header"
            }
        }
    },
    "security": [
        []
    ]
}